1
5
A1 B
A2 S
A3 S
A4 B
A5 S
1
4
A3 0
A4 1
A2 1
A3 1
EVALUASI
A1 A5 A4 A2 A3 = output
A1 A2 A3 = output

1
5
A1 B
A2 S
A3 S
A4 B
A5 S
3
4
A3 0
A4 1
A2 1
A3 1
2
A2 0
A3 0
1
A1 0
EVALUASI
A1 A5 A4 A2 A3 = output
A3 A2 A1 A5 A4 = output
A1 A3 A2 A5 A4 = output
TIDAK ADA = output

1
5
A1 B
A2 S
A3 S
A4 B
A5 S
1
6
A3 0
A4 1
A2 1
A3 1
A4 1
A5 1
EVALUASI
A1 A2 A3 A4 A5 = output
A1 A2 A3 A4 A5 = output